STARTFONT 2.1
COMMENT Font grabbed from the X server. Robert Templeman: grabbed lucida console & edited most latin glyphs
FONT -bertys-nude-medium-r-normal--12-120-75-75-p-67-iso8859-1
SIZE 12 75 75
FONTBOUNDINGBOX 10 15 0 -3
STARTPROPERTIES 28
FOUNDRY "Bertys"
FAMILY_NAME "nude"
WEIGHT_NAME "Medium"SLANT "R"
SETWIDTH_NAME "Normal"
ADD_STYLE_NAME ""
PIXEL_SIZE 12
POINT_SIZE 120
RESOLUTION_X 75
RESOLUTION_Y 75
SPACING "P"
AVERAGE_WIDTH 67
CHARSET_REGISTRY "ISO8859"
CHARSET_ENCODING "14"
CAP_HEIGHT 9
X_HEIGHT 7
FACE_NAME "Bertys"
COPY0RIGHT "whatever lucida console was"
NOTICE "Helvetica is a trademark of Linotype-Hell AG and/or its subsidiaries.  "
_DEC_DEVICE_FONTNAMES "PS=Helvetica"
RELATIVE_SETWIDTH 50
RELATIVE_WEIGHT 50
FULL_NAME "Bertys nude font"
WEIGHT 10
RESOLUTION 103
QUAD_WIDTH 7
FONT_ASCENT 12
FONT_DESCENT 1
_XMBDFED_INFO "Edited with xmbdfed 4.7."
ENDPROPERTIES
CHARS 192
STARTCHAR char0
ENCODING 0
SWIDTH 640 0
DWIDTH 7 0
BBX 7 9 1 0
BITMAP
AA
00
82
00
82
00
82
00
AA
ENDCHAR
STARTCHAR char32
ENCODING 32
SWIDTH 640 0
DWIDTH 7 0
BBX 0 0 0 0
BITMAP
ENDCHAR
STARTCHAR char33
ENCODING 33
SWIDTH 640 0
DWIDTH 7 0
BBX 1 10 1 0
BITMAP
80
80
80
80
80
80
80
00
80
80
ENDCHAR
STARTCHAR char34
ENCODING 34
SWIDTH 640 0
DWIDTH 7 0
BBX 5 3 0 6
BITMAP
D8
D8
D8
ENDCHAR
STARTCHAR char35
ENCODING 35
SWIDTH 640 0
DWIDTH 7 0
BBX 6 9 0 0
BITMAP
28
28
28
FC
48
FC
50
50
50
ENDCHAR
STARTCHAR char36
ENCODING 36
SWIDTH 640 0
DWIDTH 7 0
BBX 5 9 0 -1
BITMAP
20
70
A8
A0
70
28
A8
70
20
ENDCHAR
STARTCHAR char37
ENCODING 37
SWIDTH 640 0
DWIDTH 7 0
BBX 7 10 0 0
BITMAP
44
A4
A8
48
10
10
24
2A
4A
44
ENDCHAR
STARTCHAR char38
ENCODING 38
SWIDTH 640 0
DWIDTH 7 0
BBX 6 10 0 0
BITMAP
30
48
48
50
24
54
8C
88
9C
64
ENDCHAR
STARTCHAR char39
ENCODING 39
SWIDTH 640 0
DWIDTH 7 0
BBX 2 3 1 6
BITMAP
C0
C0
C0
ENDCHAR
STARTCHAR char40
ENCODING 40
SWIDTH 640 0
DWIDTH 7 0
BBX 4 11 1 -1
BITMAP
30
60
40
C0
80
80
80
C0
40
60
30
ENDCHAR
STARTCHAR char41
ENCODING 41
SWIDTH 640 0
DWIDTH 7 0
BBX 4 11 0 -1
BITMAP
C0
60
20
30
10
10
10
30
20
60
C0
ENDCHAR
STARTCHAR char42
ENCODING 42
SWIDTH 640 0
DWIDTH 7 0
BBX 6 7 0 1
BITMAP
48
48
30
FC
30
48
48
ENDCHAR
STARTCHAR char43
ENCODING 43
SWIDTH 640 0
DWIDTH 7 0
BBX 7 7 0 1
BITMAP
10
10
10
FE
10
10
10
ENDCHAR
STARTCHAR char44
ENCODING 44
SWIDTH 640 0
DWIDTH 7 0
BBX 3 4 0 -2
BITMAP
60
60
60
C0
ENDCHAR
STARTCHAR char45
ENCODING 45
SWIDTH 640 0
DWIDTH 7 0
BBX 6 1 0 4
BITMAP
FC
ENDCHAR
STARTCHAR char46
ENCODING 46
SWIDTH 640 0
DWIDTH 7 0
BBX 2 3 1 0
BITMAP
C0
C0
C0
ENDCHAR
STARTCHAR char47
ENCODING 47
SWIDTH 640 0
DWIDTH 7 0
BBX 5 10 0 0
BITMAP
08
08
10
10
20
20
40
40
80
80
ENDCHAR
STARTCHAR char48
ENCODING 48
SWIDTH 640 0
DWIDTH 7 0
BBX 5 9 0 0
BITMAP
70
88
88
88
88
88
88
88
70
ENDCHAR
STARTCHAR char49
ENCODING 49
SWIDTH 640 0
DWIDTH 7 0
BBX 4 9 0 0
BITMAP
20
E0
20
20
20
20
20
20
70
ENDCHAR
STARTCHAR char50
ENCODING 50
SWIDTH 640 0
DWIDTH 7 0
BBX 5 9 0 0
BITMAP
70
88
08
10
20
40
80
80
F8
ENDCHAR
STARTCHAR char51
ENCODING 51
SWIDTH 640 0
DWIDTH 7 0
BBX 5 9 0 0
BITMAP
70
88
08
30
08
08
88
88
70
ENDCHAR
STARTCHAR char52
ENCODING 52
SWIDTH 640 0
DWIDTH 7 0
BBX 6 9 0 0
BITMAP
08
18
28
48
88
88
FC
08
08
ENDCHAR
STARTCHAR char53
ENCODING 53
SWIDTH 640 0
DWIDTH 7 0
BBX 5 9 0 0
BITMAP
F8
80
80
F0
08
08
88
88
70
ENDCHAR
STARTCHAR char54
ENCODING 54
SWIDTH 640 0
DWIDTH 7 0
BBX 5 9 0 0
BITMAP
70
88
80
B0
C8
88
88
88
70
ENDCHAR
STARTCHAR char55
ENCODING 55
SWIDTH 640 0
DWIDTH 7 0
BBX 5 9 0 0
BITMAP
F8
08
10
10
20
20
20
40
40
ENDCHAR
STARTCHAR char56
ENCODING 56
SWIDTH 640 0
DWIDTH 7 0
BBX 5 9 0 0
BITMAP
70
88
88
70
88
88
88
88
70
ENDCHAR
STARTCHAR char57
ENCODING 57
SWIDTH 640 0
DWIDTH 7 0
BBX 5 9 0 0
BITMAP
70
88
88
88
78
08
08
88
70
ENDCHAR
STARTCHAR char58
ENCODING 58
SWIDTH 640 0
DWIDTH 7 0
BBX 2 6 1 0
BITMAP
C0
C0
00
00
C0
C0
ENDCHAR
STARTCHAR char59
ENCODING 59
SWIDTH 640 0
DWIDTH 7 0
BBX 3 7 1 -1
BITMAP
60
60
00
00
60
60
C0
ENDCHAR
STARTCHAR char60
ENCODING 60
SWIDTH 640 0
DWIDTH 7 0
BBX 6 9 0 0
BITMAP
0C
18
30
60
C0
60
30
18
0C
ENDCHAR
STARTCHAR char61
ENCODING 61
SWIDTH 640 0
DWIDTH 7 0
BBX 5 4 0 2
BITMAP
F8
00
00
F8
ENDCHAR
STARTCHAR char62
ENCODING 62
SWIDTH 640 0
DWIDTH 7 0
BBX 6 9 0 0
BITMAP
C0
60
30
18
0C
18
30
60
C0
ENDCHAR
STARTCHAR char63
ENCODING 63
SWIDTH 640 0
DWIDTH 7 0
BBX 5 9 0 0
BITMAP
70
88
88
10
10
20
20
00
20
ENDCHAR
STARTCHAR char64
ENCODING 64
SWIDTH 640 0
DWIDTH 7 0
BBX 7 9 0 -1
BITMAP
38
44
92
AA
AA
AA
9E
40
3E
ENDCHAR
STARTCHAR char65
ENCODING 65
SWIDTH 640 0
DWIDTH 7 0
BBX 6 9 0 0
BITMAP
30
30
48
48
48
FC
84
84
84
ENDCHAR
STARTCHAR char66
ENCODING 66
SWIDTH 640 0
DWIDTH 7 0
BBX 5 9 0 0
BITMAP
F0
88
88
88
F0
88
88
88
F0
ENDCHAR
STARTCHAR char67
ENCODING 67
SWIDTH 640 0
DWIDTH 7 0
BBX 5 9 0 0
BITMAP
38
40
80
80
80
80
80
40
38
ENDCHAR
STARTCHAR char68
ENCODING 68
SWIDTH 640 0
DWIDTH 7 0
BBX 5 9 0 0
BITMAP
E0
90
88
88
88
88
88
90
E0
ENDCHAR
STARTCHAR char69
ENCODING 69
SWIDTH 640 0
DWIDTH 7 0
BBX 5 9 0 0
BITMAP
F8
80
80
80
F0
80
80
80
F8
ENDCHAR
STARTCHAR char70
ENCODING 70
SWIDTH 640 0
DWIDTH 7 0
BBX 4 9 0 0
BITMAP
F0
80
80
80
F0
80
80
80
80
ENDCHAR
STARTCHAR char71
ENCODING 71
SWIDTH 640 0
DWIDTH 7 0
BBX 5 9 0 0
BITMAP
70
88
80
80
80
98
88
88
70
ENDCHAR
STARTCHAR char72
ENCODING 72
SWIDTH 640 0
DWIDTH 7 0
BBX 5 9 0 0
BITMAP
88
88
88
88
F8
88
88
88
88
ENDCHAR
STARTCHAR char73
ENCODING 73
SWIDTH 640 0
DWIDTH 7 0
BBX 5 9 0 0
BITMAP
F8
20
20
20
20
20
20
20
F8
ENDCHAR
STARTCHAR char74
ENCODING 74
SWIDTH 640 0
DWIDTH 7 0
BBX 5 9 0 0
BITMAP
38
10
10
10
10
10
90
90
60
ENDCHAR
STARTCHAR char75
ENCODING 75
SWIDTH 640 0
DWIDTH 7 0
BBX 5 9 0 0
BITMAP
88
90
A0
C0
C0
A0
90
88
88
ENDCHAR
STARTCHAR char76
ENCODING 76
SWIDTH 640 0
DWIDTH 7 0
BBX 5 9 0 0
BITMAP
80
80
80
80
80
80
80
80
F8
ENDCHAR
STARTCHAR char77
ENCODING 77
SWIDTH 640 0
DWIDTH 7 0
BBX 6 9 0 0
BITMAP
84
84
CC
CC
B4
B4
84
84
84
ENDCHAR
STARTCHAR char78
ENCODING 78
SWIDTH 640 0
DWIDTH 7 0
BBX 5 9 0 0
BITMAP
88
88
C8
C8
A8
98
98
88
88
ENDCHAR
STARTCHAR char79
ENCODING 79
SWIDTH 640 0
DWIDTH 7 0
BBX 6 9 0 0
BITMAP
30
48
84
84
84
84
84
48
30
ENDCHAR
STARTCHAR char80
ENCODING 80
SWIDTH 640 0
DWIDTH 7 0
BBX 5 9 0 0
BITMAP
F0
88
88
88
88
F0
80
80
80
ENDCHAR
STARTCHAR char81
ENCODING 81
SWIDTH 640 0
DWIDTH 7 0
BBX 6 9 0 0
BITMAP
30
48
84
84
84
A4
94
48
34
ENDCHAR
STARTCHAR char82
ENCODING 82
SWIDTH 640 0
DWIDTH 7 0
BBX 5 9 0 0
BITMAP
F0
88
88
88
F0
90
88
88
88
ENDCHAR
STARTCHAR char83
ENCODING 83
SWIDTH 640 0
DWIDTH 7 0
BBX 5 9 0 0
BITMAP
78
80
80
C0
70
18
08
08
F0
ENDCHAR
STARTCHAR char84
ENCODING 84
SWIDTH 640 0
DWIDTH 7 0
BBX 5 9 0 0
BITMAP
F8
20
20
20
20
20
20
20
20
ENDCHAR
STARTCHAR char85
ENCODING 85
SWIDTH 640 0
DWIDTH 7 0
BBX 5 9 0 0
BITMAP
88
88
88
88
88
88
88
88
70
ENDCHAR
STARTCHAR char86
ENCODING 86
SWIDTH 640 0
DWIDTH 7 0
BBX 5 9 0 0
BITMAP
88
88
88
50
50
50
20
20
20
ENDCHAR
STARTCHAR char87
ENCODING 87
SWIDTH 640 0
DWIDTH 7 0
BBX 6 9 0 0
BITMAP
84
84
84
B4
B4
48
48
48
48
ENDCHAR
STARTCHAR char88
ENCODING 88
SWIDTH 640 0
DWIDTH 7 0
BBX 6 9 0 0
BITMAP
84
84
48
48
30
48
48
84
84
ENDCHAR
STARTCHAR char89
ENCODING 89
SWIDTH 640 0
DWIDTH 7 0
BBX 5 9 0 0
BITMAP
88
88
88
50
70
20
20
20
20
ENDCHAR
STARTCHAR char90
ENCODING 90
SWIDTH 640 0
DWIDTH 7 0
BBX 5 9 0 0
BITMAP
F8
08
08
10
20
40
80
80
F8
ENDCHAR
STARTCHAR char91
ENCODING 91
SWIDTH 640 0
DWIDTH 7 0
BBX 3 11 3 -1
BITMAP
E0
80
80
80
80
80
80
80
80
80
E0
ENDCHAR
STARTCHAR char92
ENCODING 92
SWIDTH 640 0
DWIDTH 7 0
BBX 5 9 2 0
BITMAP
80
40
40
20
20
20
10
10
08
ENDCHAR
STARTCHAR char93
ENCODING 93
SWIDTH 640 0
DWIDTH 7 0
BBX 3 11 0 -1
BITMAP
E0
20
20
20
20
20
20
20
20
20
E0
ENDCHAR
STARTCHAR char94
ENCODING 94
SWIDTH 640 0
DWIDTH 7 0
BBX 7 5 0 4
BITMAP
10
38
6C
C6
82
ENDCHAR
STARTCHAR char95
ENCODING 95
SWIDTH 640 0
DWIDTH 7 0
BBX 6 1 0 0
BITMAP
FC
ENDCHAR
STARTCHAR char96
ENCODING 96
SWIDTH 640 0
DWIDTH 7 0
BBX 4 3 1 7
BITMAP
C0
60
30
ENDCHAR
STARTCHAR char97
ENCODING 97
SWIDTH 640 0
DWIDTH 7 0
BBX 5 7 0 0
BITMAP
70
88
08
78
88
88
78
ENDCHAR
STARTCHAR char98
ENCODING 98
SWIDTH 640 0
DWIDTH 7 0
BBX 5 10 0 0
BITMAP
80
80
80
B0
C8
88
88
88
88
F0
ENDCHAR
STARTCHAR char99
ENCODING 99
SWIDTH 640 0
DWIDTH 7 0
BBX 5 7 0 0
BITMAP
38
40
80
80
80
40
38
ENDCHAR
STARTCHAR char100
ENCODING 100
SWIDTH 640 0
DWIDTH 7 0
BBX 5 10 0 0
BITMAP
08
08
08
68
98
88
88
88
98
68
ENDCHAR
STARTCHAR char101
ENCODING 101
SWIDTH 640 0
DWIDTH 7 0
BBX 5 7 0 0
BITMAP
70
88
88
F8
80
88
70
ENDCHAR
STARTCHAR char102
ENCODING 102
SWIDTH 640 0
DWIDTH 7 0
BBX 5 10 0 0
BITMAP
38
40
40
F8
40
40
40
40
40
40
ENDCHAR
STARTCHAR char103
ENCODING 103
SWIDTH 640 0
DWIDTH 7 0
BBX 5 9 0 -2
BITMAP
68
98
88
88
88
98
68
08
70
ENDCHAR
STARTCHAR char104
ENCODING 104
SWIDTH 640 0
DWIDTH 7 0
BBX 5 10 0 0
BITMAP
80
80
80
B0
C8
88
88
88
88
88
ENDCHAR
STARTCHAR char105
ENCODING 105
SWIDTH 640 0
DWIDTH 7 0
BBX 3 10 0 0
BITMAP
20
20
00
E0
20
20
20
20
20
20
ENDCHAR
STARTCHAR char106
ENCODING 106
SWIDTH 640 0
DWIDTH 7 0
BBX 3 10 2 0
BITMAP
20
20
00
E0
20
20
20
20
20
C0
ENDCHAR
STARTCHAR char107
ENCODING 107
SWIDTH 640 0
DWIDTH 7 0
BBX 5 10 0 0
BITMAP
80
80
88
90
A0
C0
C0
A0
90
88
ENDCHAR
STARTCHAR char108
ENCODING 108
SWIDTH 640 0
DWIDTH 7 0
BBX 3 10 0 0
BITMAP
E0
20
20
20
20
20
20
20
20
20
ENDCHAR
STARTCHAR char109
ENCODING 109
SWIDTH 640 0
DWIDTH 7 0
BBX 6 7 0 0
BITMAP
FC
54
54
54
54
54
54
ENDCHAR
STARTCHAR char110
ENCODING 110
SWIDTH 640 0
DWIDTH 7 0
BBX 5 7 0 0
BITMAP
B0
C8
88
88
88
88
88
ENDCHAR
STARTCHAR char111
ENCODING 111
SWIDTH 640 0
DWIDTH 7 0
BBX 5 7 0 0
BITMAP
70
88
88
88
88
88
70
ENDCHAR
STARTCHAR char112
ENCODING 112
SWIDTH 640 0
DWIDTH 7 0
BBX 5 8 0 -1
BITMAP
B0
C8
88
88
88
F0
80
80
ENDCHAR
STARTCHAR char113
ENCODING 113
SWIDTH 640 0
DWIDTH 7 0
BBX 5 8 0 -1
BITMAP
68
98
88
88
88
78
08
08
ENDCHAR
STARTCHAR char114
ENCODING 114
SWIDTH 640 0
DWIDTH 7 0
BBX 5 7 0 0
BITMAP
98
A0
C0
80
80
80
80
ENDCHAR
STARTCHAR char115
ENCODING 115
SWIDTH 640 0
DWIDTH 7 0
BBX 4 7 0 0
BITMAP
70
80
80
60
10
10
E0
ENDCHAR
STARTCHAR char116
ENCODING 116
SWIDTH 640 0
DWIDTH 7 0
BBX 5 10 0 0
BITMAP
40
40
40
F8
40
40
40
40
40
38
ENDCHAR
STARTCHAR char117
ENCODING 117
SWIDTH 640 0
DWIDTH 7 0
BBX 5 7 0 0
BITMAP
88
88
88
88
88
98
68
ENDCHAR
STARTCHAR char118
ENCODING 118
SWIDTH 640 0
DWIDTH 7 0
BBX 5 7 0 0
BITMAP
88
88
88
50
50
20
20
ENDCHAR
STARTCHAR char119
ENCODING 119
SWIDTH 640 0
DWIDTH 7 0
BBX 6 7 0 0
BITMAP
84
84
B4
FC
48
48
48
ENDCHAR
STARTCHAR char120
ENCODING 120
SWIDTH 640 0
DWIDTH 7 0
BBX 5 7 0 0
BITMAP
88
88
50
20
50
88
88
ENDCHAR
STARTCHAR char121
ENCODING 121
SWIDTH 640 0
DWIDTH 7 0
BBX 5 8 0 -1
BITMAP
88
88
88
50
50
20
20
C0
ENDCHAR
STARTCHAR char122
ENCODING 122
SWIDTH 640 0
DWIDTH 7 0
BBX 5 7 0 0
BITMAP
F8
08
10
20
40
80
F8
ENDCHAR
STARTCHAR char123
ENCODING 123
SWIDTH 640 0
DWIDTH 7 0
BBX 5 11 0 -1
BITMAP
18
20
20
20
20
C0
20
20
20
20
18
ENDCHAR
STARTCHAR char124
ENCODING 124
SWIDTH 640 0
DWIDTH 7 0
BBX 1 11 3 0
BITMAP
80
80
80
80
80
80
80
80
80
80
80
ENDCHAR
STARTCHAR char125
ENCODING 125
SWIDTH 640 0
DWIDTH 7 0
BBX 5 11 0 -1
BITMAP
C0
20
20
20
20
18
20
20
20
20
C0
ENDCHAR
STARTCHAR char126
ENCODING 126
SWIDTH 640 0
DWIDTH 7 0
BBX 6 3 0 3
BITMAP
64
B4
98
ENDCHAR
STARTCHAR char160
ENCODING 160
SWIDTH 640 0
DWIDTH 7 0
BBX 0 0 0 0
BITMAP
ENDCHAR
STARTCHAR char161
ENCODING 161
SWIDTH 640 0
DWIDTH 7 0
BBX 6 11 1 0
BITMAP
20
00
F8
84
84
84
F8
84
84
84
F8
ENDCHAR
STARTCHAR char162
ENCODING 162
SWIDTH 640 0
DWIDTH 7 0
BBX 5 11 1 0
BITMAP
40
00
80
80
B0
C8
88
88
88
C8
B0
ENDCHAR
STARTCHAR char163
ENCODING 163
SWIDTH 640 0
DWIDTH 7 0
BBX 5 9 1 0
BITMAP
30
48
40
40
F0
20
20
48
B0
ENDCHAR
STARTCHAR char164
ENCODING 164
SWIDTH 640 0
DWIDTH 7 0
BBX 7 11 1 0
BITMAP
10
00
3C
42
80
80
80
80
80
42
3C
ENDCHAR
STARTCHAR char165
ENCODING 165
SWIDTH 640 0
DWIDTH 7 0
BBX 5 9 1 0
BITMAP
20
00
70
88
80
80
80
88
70
ENDCHAR
STARTCHAR char166
ENCODING 166
SWIDTH 640 0
DWIDTH 7 0
BBX 7 11 1 0
BITMAP
10
00
F8
84
82
82
82
82
82
84
F8
ENDCHAR
STARTCHAR char167
ENCODING 167
SWIDTH 640 0
DWIDTH 7 0
BBX 5 12 0 -3
BITMAP
70
88
80
60
90
88
88
48
30
08
88
70
ENDCHAR
STARTCHAR char168
ENCODING 168
SWIDTH 640 0
DWIDTH 7 0
BBX 9 12 1 0
BITMAP
1000
0800
0000
8880
8880
8880
4900
5500
5500
2200
2200
2200
ENDCHAR
STARTCHAR char169
ENCODING 169
SWIDTH 640 0
DWIDTH 7 0
BBX 9 9 1 0
BITMAP
3E00
4100
9C80
A280
A080
A280
9C80
4100
3E00
ENDCHAR
STARTCHAR char170
ENCODING 170
SWIDTH 640 0
DWIDTH 7 0
BBX 9 12 1 0
BITMAP
0400
0800
0000
8880
8880
8880
4900
5500
5500
2200
2200
2200
ENDCHAR
STARTCHAR char171
ENCODING 171
SWIDTH 640 0
DWIDTH 7 0
BBX 5 11 1 0
BITMAP
10
00
08
08
68
98
88
88
88
98
68
ENDCHAR
STARTCHAR char172
ENCODING 172
SWIDTH 640 0
DWIDTH 7 0
BBX 7 12 1 0
BITMAP
20
10
00
82
82
44
44
28
10
10
10
10
ENDCHAR
STARTCHAR char173
ENCODING 173
SWIDTH 640 0
DWIDTH 7 0
BBX 4 1 0 3
BITMAP
F0
ENDCHAR
STARTCHAR char174
ENCODING 174
SWIDTH 640 0
DWIDTH 7 0
BBX 9 9 1 0
BITMAP
3E00
4100
9C80
9480
9880
9480
9480
4100
3E00
ENDCHAR
STARTCHAR char175
ENCODING 175
SWIDTH 640 0
DWIDTH 7 0
BBX 7 11 1 0
BITMAP
28
00
82
82
44
44
28
10
10
10
10
ENDCHAR
STARTCHAR char176
ENCODING 176
SWIDTH 640 0
DWIDTH 7 0
BBX 6 11 1 0
BITMAP
20
00
FC
80
80
80
F8
80
80
80
80
ENDCHAR
STARTCHAR char177
ENCODING 177
SWIDTH 640 0
DWIDTH 7 0
BBX 4 11 0 0
BITMAP
20
00
30
40
E0
40
40
40
40
40
40
ENDCHAR
STARTCHAR char178
ENCODING 178
SWIDTH 640 0
DWIDTH 7 0
BBX 7 11 1 0
BITMAP
10
00
3C
42
80
80
8E
82
82
46
3A
ENDCHAR
STARTCHAR char179
ENCODING 179
SWIDTH 640 0
DWIDTH 7 0
BBX 5 12 1 -3
BITMAP
20
00
68
98
88
88
88
98
68
08
88
70
ENDCHAR
STARTCHAR char180
ENCODING 180
SWIDTH 640 0
DWIDTH 7 0
BBX 9 11 1 0
BITMAP
0800
0000
8080
C180
C180
A280
A280
9480
9480
8880
8880
ENDCHAR
STARTCHAR char181
ENCODING 181
SWIDTH 640 0
DWIDTH 7 0
BBX 7 9 1 0
BITMAP
10
00
A4
DA
92
92
92
92
92
ENDCHAR
STARTCHAR char182
ENCODING 182
SWIDTH 640 0
DWIDTH 7 0
BBX 6 12 0 -3
BITMAP
3C
68
E8
E8
E8
68
28
28
28
28
28
28
ENDCHAR
STARTCHAR char183
ENCODING 183
SWIDTH 640 0
DWIDTH 7 0
BBX 6 11 1 0
BITMAP
20
00
F8
84
84
84
F8
80
80
80
80
ENDCHAR
STARTCHAR char184
ENCODING 184
SWIDTH 640 0
DWIDTH 7 0
BBX 9 10 0 0
BITMAP
1000
0800
0000
8880
8880
4900
4900
5500
2200
2200
ENDCHAR
STARTCHAR char185
ENCODING 185
SWIDTH 640 0
DWIDTH 7 0
BBX 5 12 1 -3
BITMAP
20
00
B0
C8
88
88
88
C8
B0
80
80
80
ENDCHAR
STARTCHAR char186
ENCODING 186
SWIDTH 640 0
DWIDTH 7 0
BBX 9 10 0 0
BITMAP
0400
0800
0000
8880
8880
4900
4900
5500
2200
2200
ENDCHAR
STARTCHAR char187
ENCODING 187
SWIDTH 640 0
DWIDTH 7 0
BBX 6 11 1 0
BITMAP
20
00
78
84
80
60
18
04
84
84
78
ENDCHAR
STARTCHAR char188
ENCODING 188
SWIDTH 640 0
DWIDTH 7 0
BBX 5 13 1 -3
BITMAP
40
20
00
88
88
88
90
50
50
20
20
40
80
ENDCHAR
STARTCHAR char189
ENCODING 189
SWIDTH 640 0
DWIDTH 7 0
BBX 9 11 1 0
BITMAP
1400
0000
8880
8880
8880
4900
5500
5500
2200
2200
2200
ENDCHAR
STARTCHAR char190
ENCODING 190
SWIDTH 640 0
DWIDTH 7 0
BBX 9 9 0 0
BITMAP
1400
0000
8880
8880
4900
4900
5500
2200
2200
ENDCHAR
STARTCHAR char191
ENCODING 191
SWIDTH 640 0
DWIDTH 7 0
BBX 4 9 1 0
BITMAP
20
00
60
90
80
60
10
90
60
ENDCHAR
STARTCHAR char192
ENCODING 192
SWIDTH 640 0
DWIDTH 7 0
BBX 7 12 1 0
BITMAP
20
10
00
10
10
28
44
44
7C
82
82
82
ENDCHAR
STARTCHAR char193
ENCODING 193
SWIDTH 640 0
DWIDTH 7 0
BBX 7 12 1 0
BITMAP
08
10
00
10
10
28
44
44
7C
82
82
82
ENDCHAR
STARTCHAR char194
ENCODING 194
SWIDTH 640 0
DWIDTH 7 0
BBX 7 12 1 0
BITMAP
10
28
00
10
10
28
44
44
7C
82
82
82
ENDCHAR
STARTCHAR char195
ENCODING 195
SWIDTH 640 0
DWIDTH 7 0
BBX 7 12 1 0
BITMAP
14
28
00
10
10
28
44
44
7C
82
82
82
ENDCHAR
STARTCHAR char196
ENCODING 196
SWIDTH 640 0
DWIDTH 7 0
BBX 7 11 1 0
BITMAP
28
00
10
10
28
44
44
7C
82
82
82
ENDCHAR
STARTCHAR char197
ENCODING 197
SWIDTH 640 0
DWIDTH 7 0
BBX 7 12 1 0
BITMAP
10
28
10
10
10
28
44
44
7C
82
82
82
ENDCHAR
STARTCHAR char198
ENCODING 198
SWIDTH 640 0
DWIDTH 7 0
BBX 9 9 1 0
BITMAP
1F80
2800
2800
4800
4F80
7800
8800
8800
8F80
ENDCHAR
STARTCHAR char199
ENCODING 199
SWIDTH 640 0
DWIDTH 7 0
BBX 7 12 1 -3
BITMAP
3C
42
80
80
80
80
80
42
3C
08
08
30
ENDCHAR
STARTCHAR char200
ENCODING 200
SWIDTH 640 0
DWIDTH 7 0
BBX 6 12 1 0
BITMAP
20
10
00
FC
80
80
80
FC
80
80
80
FC
ENDCHAR
STARTCHAR char201
ENCODING 201
SWIDTH 640 0
DWIDTH 7 0
BBX 6 12 1 0
BITMAP
08
10
00
FC
80
80
80
FC
80
80
80
FC
ENDCHAR
STARTCHAR char202
ENCODING 202
SWIDTH 640 0
DWIDTH 7 0
BBX 6 12 1 0
BITMAP
10
28
00
FC
80
80
80
FC
80
80
80
FC
ENDCHAR
STARTCHAR char203
ENCODING 203
SWIDTH 640 0
DWIDTH 7 0
BBX 6 11 1 0
BITMAP
28
00
FC
80
80
80
FC
80
80
80
FC
ENDCHAR
STARTCHAR char204
ENCODING 204
SWIDTH 640 0
DWIDTH 7 0
BBX 2 12 0 0
BITMAP
80
40
00
40
40
40
40
40
40
40
40
40
ENDCHAR
STARTCHAR char205
ENCODING 205
SWIDTH 640 0
DWIDTH 7 0
BBX 2 12 1 0
BITMAP
40
80
00
80
80
80
80
80
80
80
80
80
ENDCHAR
STARTCHAR char206
ENCODING 206
SWIDTH 640 0
DWIDTH 7 0
BBX 3 12 0 0
BITMAP
40
A0
00
40
40
40
40
40
40
40
40
40
ENDCHAR
STARTCHAR char207
ENCODING 207
SWIDTH 640 0
DWIDTH 7 0
BBX 3 11 0 0
BITMAP
A0
00
40
40
40
40
40
40
40
40
40
ENDCHAR
STARTCHAR char208
ENCODING 208
SWIDTH 640 0
DWIDTH 7 0
BBX 9 12 1 0
BITMAP
0800
1400
0000
8880
8880
8880
4900
5500
5500
2200
2200
2200
ENDCHAR
STARTCHAR char209
ENCODING 209
SWIDTH 640 0
DWIDTH 7 0
BBX 7 12 1 0
BITMAP
14
28
00
82
C2
A2
A2
92
8A
8A
86
82
ENDCHAR
STARTCHAR char210
ENCODING 210
SWIDTH 640 0
DWIDTH 7 0
BBX 8 12 1 0
BITMAP
10
08
00
3C
42
81
81
81
81
81
42
3C
ENDCHAR
STARTCHAR char211
ENCODING 211
SWIDTH 640 0
DWIDTH 7 0
BBX 8 12 1 0
BITMAP
04
08
00
3C
42
81
81
81
81
81
42
3C
ENDCHAR
STARTCHAR char212
ENCODING 212
SWIDTH 640 0
DWIDTH 7 0
BBX 8 12 1 0
BITMAP
08
14
00
3C
42
81
81
81
81
81
42
3C
ENDCHAR
STARTCHAR char213
ENCODING 213
SWIDTH 640 0
DWIDTH 7 0
BBX 8 12 1 0
BITMAP
14
28
00
3C
42
81
81
81
81
81
42
3C
ENDCHAR
STARTCHAR char214
ENCODING 214
SWIDTH 640 0
DWIDTH 7 0
BBX 8 11 1 0
BITMAP
24
00
3C
42
81
81
81
81
81
42
3C
ENDCHAR
STARTCHAR char215
ENCODING 215
SWIDTH 640 0
DWIDTH 7 0
BBX 7 11 0 0
BITMAP
10
00
FE
10
10
10
10
10
10
10
10
ENDCHAR
STARTCHAR char216
ENCODING 216
SWIDTH 640 0
DWIDTH 7 0
BBX 10 11 0 -1
BITMAP
0040
1E80
2100
4280
4480
4480
4880
5080
2100
5E00
8000
ENDCHAR
STARTCHAR char217
ENCODING 217
SWIDTH 640 0
DWIDTH 7 0
BBX 6 12 1 0
BITMAP
20
10
00
84
84
84
84
84
84
84
84
78
ENDCHAR
STARTCHAR char218
ENCODING 218
SWIDTH 640 0
DWIDTH 7 0
BBX 6 12 1 0
BITMAP
08
10
00
84
84
84
84
84
84
84
84
78
ENDCHAR
STARTCHAR char219
ENCODING 219
SWIDTH 640 0
DWIDTH 7 0
BBX 6 12 1 0
BITMAP
10
28
00
84
84
84
84
84
84
84
84
78
ENDCHAR
STARTCHAR char220
ENCODING 220
SWIDTH 640 0
DWIDTH 7 0
BBX 6 11 1 0
BITMAP
48
00
84
84
84
84
84
84
84
84
78
ENDCHAR
STARTCHAR char221
ENCODING 221
SWIDTH 640 0
DWIDTH 7 0
BBX 7 12 1 0
BITMAP
08
10
00
82
82
44
44
28
10
10
10
10
ENDCHAR
STARTCHAR char222
ENCODING 222
SWIDTH 640 0
DWIDTH 7 0
BBX 7 12 1 0
BITMAP
10
28
00
82
82
44
44
28
10
10
10
10
ENDCHAR
STARTCHAR char223
ENCODING 223
SWIDTH 640 0
DWIDTH 7 0
BBX 5 9 1 0
BITMAP
70
88
88
88
B0
88
88
88
B0
ENDCHAR
STARTCHAR char224
ENCODING 224
SWIDTH 640 0
DWIDTH 7 0
BBX 6 10 1 0
BITMAP
20
10
00
70
88
08
78
88
88
74
ENDCHAR
STARTCHAR char225
ENCODING 225
SWIDTH 640 0
DWIDTH 7 0
BBX 6 10 1 0
BITMAP
10
20
00
70
88
08
78
88
88
74
ENDCHAR
STARTCHAR char226
ENCODING 226
SWIDTH 640 0
DWIDTH 7 0
BBX 6 10 1 0
BITMAP
20
50
00
70
88
08
78
88
88
74
ENDCHAR
STARTCHAR char227
ENCODING 227
SWIDTH 640 0
DWIDTH 7 0
BBX 6 10 1 0
BITMAP
28
50
00
70
88
08
78
88
88
74
ENDCHAR
STARTCHAR char228
ENCODING 228
SWIDTH 640 0
DWIDTH 7 0
BBX 6 9 1 0
BITMAP
50
00
70
88
08
78
88
88
74
ENDCHAR
STARTCHAR char229
ENCODING 229
SWIDTH 640 0
DWIDTH 7 0
BBX 6 10 1 0
BITMAP
30
48
30
70
88
08
78
88
88
74
ENDCHAR
STARTCHAR char230
ENCODING 230
SWIDTH 640 0
DWIDTH 7 0
BBX 9 7 1 0
BITMAP
7700
8880
0880
7F80
8800
8880
7700
ENDCHAR
STARTCHAR char231
ENCODING 231
SWIDTH 640 0
DWIDTH 7 0
BBX 5 10 1 -3
BITMAP
70
88
80
80
80
88
70
20
10
60
ENDCHAR
STARTCHAR char232
ENCODING 232
SWIDTH 640 0
DWIDTH 7 0
BBX 5 10 1 0
BITMAP
40
20
00
70
88
88
F8
80
88
70
ENDCHAR
STARTCHAR char233
ENCODING 233
SWIDTH 640 0
DWIDTH 7 0
BBX 5 10 1 0
BITMAP
10
20
00
70
88
88
F8
80
88
70
ENDCHAR
STARTCHAR char234
ENCODING 234
SWIDTH 640 0
DWIDTH 7 0
BBX 5 10 1 0
BITMAP
20
50
00
70
88
88
F8
80
88
70
ENDCHAR
STARTCHAR char235
ENCODING 235
SWIDTH 640 0
DWIDTH 7 0
BBX 5 9 1 0
BITMAP
50
00
70
88
88
F8
80
88
70
ENDCHAR
STARTCHAR char236
ENCODING 236
SWIDTH 640 0
DWIDTH 7 0
BBX 2 10 0 0
BITMAP
80
40
00
40
40
40
40
40
40
40
ENDCHAR
STARTCHAR char237
ENCODING 237
SWIDTH 640 0
DWIDTH 7 0
BBX 2 10 1 0
BITMAP
40
80
00
80
80
80
80
80
80
80
ENDCHAR
STARTCHAR char238
ENCODING 238
SWIDTH 640 0
DWIDTH 7 0
BBX 3 10 0 0
BITMAP
40
A0
00
40
40
40
40
40
40
40
ENDCHAR
STARTCHAR char239
ENCODING 239
SWIDTH 640 0
DWIDTH 7 0
BBX 3 9 0 0
BITMAP
A0
00
40
40
40
40
40
40
40
ENDCHAR
STARTCHAR char240
ENCODING 240
SWIDTH 640 0
DWIDTH 7 0
BBX 9 10 0 0
BITMAP
0800
1400
0000
8880
8880
4900
4900
5500
2200
2200
ENDCHAR
STARTCHAR char241
ENCODING 241
SWIDTH 640 0
DWIDTH 7 0
BBX 5 10 1 0
BITMAP
28
50
00
B0
C8
88
88
88
88
88
ENDCHAR
STARTCHAR char242
ENCODING 242
SWIDTH 640 0
DWIDTH 7 0
BBX 5 10 1 0
BITMAP
40
20
00
70
88
88
88
88
88
70
ENDCHAR
STARTCHAR char243
ENCODING 243
SWIDTH 640 0
DWIDTH 7 0
BBX 5 10 1 0
BITMAP
10
20
00
70
88
88
88
88
88
70
ENDCHAR
STARTCHAR char244
ENCODING 244
SWIDTH 640 0
DWIDTH 7 0
BBX 5 10 1 0
BITMAP
20
50
00
70
88
88
88
88
88
70
ENDCHAR
STARTCHAR char245
ENCODING 245
SWIDTH 640 0
DWIDTH 7 0
BBX 5 10 1 0
BITMAP
28
50
00
70
88
88
88
88
88
70
ENDCHAR
STARTCHAR char246
ENCODING 246
SWIDTH 640 0
DWIDTH 7 0
BBX 5 9 1 0
BITMAP
50
00
70
88
88
88
88
88
70
ENDCHAR
STARTCHAR char247
ENCODING 247
SWIDTH 640 0
DWIDTH 7 0
BBX 3 11 0 0
BITMAP
40
00
40
40
E0
40
40
40
40
40
60
ENDCHAR
STARTCHAR char248
ENCODING 248
SWIDTH 640 0
DWIDTH 7 0
BBX 7 7 0 0
BITMAP
3A
44
4C
54
64
44
B8
ENDCHAR
STARTCHAR char249
ENCODING 249
SWIDTH 640 0
DWIDTH 7 0
BBX 5 10 1 0
BITMAP
40
20
00
88
88
88
88
88
98
68
ENDCHAR
STARTCHAR char250
ENCODING 250
SWIDTH 640 0
DWIDTH 7 0
BBX 5 10 1 0
BITMAP
10
20
00
88
88
88
88
88
98
68
ENDCHAR
STARTCHAR char251
ENCODING 251
SWIDTH 640 0
DWIDTH 7 0
BBX 5 10 1 0
BITMAP
20
50
00
88
88
88
88
88
98
68
ENDCHAR
STARTCHAR char252
ENCODING 252
SWIDTH 640 0
DWIDTH 7 0
BBX 5 9 1 0
BITMAP
50
00
88
88
88
88
88
98
68
ENDCHAR
STARTCHAR char253
ENCODING 253
SWIDTH 640 0
DWIDTH 7 0
BBX 5 13 1 -3
BITMAP
10
20
00
88
88
88
90
50
50
20
20
40
80
ENDCHAR
STARTCHAR char254
ENCODING 254
SWIDTH 640 0
DWIDTH 7 0
BBX 5 13 1 -3
BITMAP
20
50
00
88
88
88
90
50
50
20
20
40
80
ENDCHAR
STARTCHAR char255
ENCODING 255
SWIDTH 640 0
DWIDTH 7 0
BBX 5 12 1 -3
BITMAP
50
00
88
88
48
50
50
30
20
20
20
C0
ENDCHAR
ENDFONT
